%!PS-Adobe-3.0
%%BoundingBox: 64 48 531 794
%%Title: Untitled
%%Creator: yudit 3.0.8 GNU (C) Gaspar Sinai
%%CreationDate: 2023-01-26 16:18:51
%%Orientation: Portrait
%%DocumentMedia: A4 595 842 0 () ()
%%Pages: 1
%%PageOrder: Ascend
%%EndComments

%%BeginProlog
%%BeginResource: cache

/Glyph0 {
newpath
0.000 9.000 moveto
467.000 9.000 lineto
467.000 8.000 lineto
0.000 8.000 lineto
closepath
fill
} bind def

/Glyph1 {
newpath
3.162 16.723 moveto
3.162 10.853 lineto
3.162 10.125 3.367 9.556 3.777 9.101 curveto
4.186 8.600 4.755 8.373 5.483 8.373 curveto
7.303 8.373 8.987 8.441 10.557 8.577 curveto
12.468 8.714 13.924 8.941 14.971 9.237 curveto
15.176 9.306 15.335 9.419 15.426 9.579 curveto
15.494 9.715 15.517 9.874 15.472 10.056 curveto
15.426 10.193 15.335 10.329 15.199 10.420 curveto
15.017 10.489 14.835 10.489 14.630 10.443 curveto
13.583 10.147 12.150 9.920 10.329 9.761 curveto
8.805 9.624 7.326 9.556 5.915 9.556 curveto
5.415 9.556 5.073 9.670 4.846 9.897 curveto
4.618 10.125 4.505 10.443 4.505 10.875 curveto
4.505 16.746 lineto
4.505 16.951 4.414 17.110 4.277 17.246 curveto
4.141 17.337 4.004 17.406 3.822 17.406 curveto
3.640 17.406 3.481 17.337 3.367 17.224 curveto
3.230 17.087 3.162 16.928 3.162 16.723 curveto
closepath
18.316 12.377 moveto
18.316 17.269 lineto
18.316 17.679 18.088 17.883 17.633 17.883 curveto
17.178 17.883 16.973 17.679 16.973 17.269 curveto
16.973 8.145 lineto
16.973 7.918 17.042 7.758 17.178 7.645 curveto
17.292 7.508 17.451 7.463 17.633 7.463 curveto
17.815 7.463 17.952 7.508 18.088 7.645 curveto
18.225 7.758 18.316 7.918 18.316 8.145 curveto
18.316 11.217 lineto
20.796 11.217 lineto
21.183 11.217 21.387 11.399 21.387 11.808 curveto
21.387 12.172 21.183 12.377 20.796 12.377 curveto
closepath
16.973 3.981 moveto
16.973 1.274 lineto
16.973 1.001 16.882 0.819 16.723 0.705 curveto
16.564 0.591 16.313 0.546 15.995 0.546 curveto
6.643 0.546 lineto
6.257 0.546 5.984 0.591 5.847 0.728 curveto
5.688 0.841 5.620 1.046 5.620 1.365 curveto
5.620 3.936 lineto
5.620 4.209 5.665 4.414 5.802 4.550 curveto
5.938 4.687 6.188 4.755 6.552 4.755 curveto
15.949 4.755 lineto
16.313 4.755 16.564 4.687 16.723 4.596 curveto
16.882 4.459 16.973 4.254 16.973 3.981 curveto
closepath
16.268 5.915 moveto
6.120 5.915 lineto
5.551 5.915 5.096 5.756 4.778 5.437 curveto
4.436 5.119 4.277 4.709 4.277 4.232 curveto
4.277 1.251 lineto
4.277 0.637 4.436 0.182 4.755 -0.113 curveto
5.073 -0.432 5.642 -0.614 6.416 -0.614 curveto
16.359 -0.614 lineto
16.951 -0.614 17.428 -0.455 17.770 -0.182 curveto
18.134 0.113 18.316 0.546 18.316 1.137 curveto
18.316 4.323 lineto
18.316 4.800 18.134 5.187 17.770 5.483 curveto
17.406 5.756 16.905 5.915 16.268 5.915 curveto
closepath
fill
} bind def

%%EndResource: cache
%%EndProlog

%%EndProlog


%%Page: 1 1
save
gsave 64.000 743.000 translate Glyph1 grestore

showpage restore
%%DocumentFonts: Times-Roman
%%Pages: 1
%%Trailer
%%EOF
