%!PS-Adobe-3.0
%%BoundingBox: 64 48 531 794
%%Title: Untitled
%%Creator: yudit 3.0.8 GNU (C) Gaspar Sinai
%%CreationDate: 2023-01-26 16:18:52
%%Orientation: Portrait
%%DocumentMedia: A4 595 842 0 () ()
%%Pages: 1
%%PageOrder: Ascend
%%EndComments

%%BeginProlog
%%BeginResource: cache

/Glyph1 {
newpath
4.255 19.000 moveto
4.744 18.837 5.465 18.627 6.441 18.395 curveto
7.767 17.930 7.627 17.372 6.883 17.279 curveto
6.465 17.186 6.255 17.116 6.255 17.046 curveto
5.837 15.558 5.372 14.255 4.860 13.116 curveto
4.953 13.069 5.162 13.023 5.255 13.000 curveto
5.627 12.860 5.813 12.744 5.813 12.697 curveto
5.813 12.465 5.697 12.302 5.465 12.209 curveto
5.302 12.116 5.232 11.953 5.232 11.767 curveto
5.232 2.000 lineto
5.232 0.813 5.255 -0.348 5.302 -1.511 curveto
5.302 -1.744 4.976 -1.906 4.372 -2.000 curveto
4.093 -2.046 3.883 -2.069 3.790 -2.069 curveto
3.372 -2.069 3.186 -1.883 3.186 -1.511 curveto
3.279 -0.162 3.325 1.116 3.325 2.418 curveto
3.325 10.255 lineto
2.674 9.209 1.976 8.255 1.232 7.372 curveto
0.906 7.697 lineto
1.790 9.511 2.511 11.232 3.023 12.906 curveto
3.488 14.674 3.906 16.697 4.255 19.000 curveto
closepath
7.534 17.883 moveto
8.279 17.744 9.325 17.674 10.720 17.674 curveto
18.209 17.674 lineto
18.255 17.697 18.465 17.930 18.837 18.395 curveto
19.279 18.930 19.534 19.209 19.627 19.209 curveto
19.837 19.209 20.209 18.930 20.767 18.372 curveto
21.279 17.813 21.534 17.465 21.534 17.372 curveto
21.534 17.139 21.395 17.046 21.139 17.046 curveto
15.302 17.046 lineto
14.720 16.488 14.093 16.000 13.418 15.604 curveto
16.767 15.604 lineto
17.046 15.790 17.255 15.976 17.418 16.162 curveto
17.720 16.418 17.930 16.558 18.069 16.558 curveto
18.279 16.558 18.674 16.325 19.232 15.860 curveto
19.837 15.372 20.162 15.069 20.162 14.953 curveto
20.162 14.767 20.000 14.581 19.697 14.395 curveto
19.348 14.209 19.162 14.046 19.162 13.883 curveto
19.162 10.232 lineto
19.279 10.232 lineto
19.465 10.372 19.651 10.558 19.837 10.790 curveto
20.093 11.116 20.302 11.279 20.441 11.279 curveto
20.604 11.279 20.953 10.976 21.488 10.372 curveto
22.046 9.744 22.348 9.302 22.348 9.069 curveto
22.348 8.906 22.139 8.837 21.767 8.837 curveto
21.302 8.790 21.023 8.744 20.883 8.697 curveto
19.697 8.000 lineto
19.744 7.953 19.930 7.837 20.209 7.651 curveto
20.767 7.162 21.069 6.744 21.069 6.395 curveto
21.069 6.093 20.953 5.837 20.767 5.651 curveto
20.627 5.511 20.465 5.465 20.255 5.465 curveto
19.976 5.465 19.767 5.511 19.651 5.651 curveto
19.465 5.744 19.325 6.000 19.232 6.441 curveto
19.023 7.069 18.604 7.790 17.976 8.627 curveto
18.139 8.744 lineto
19.232 8.255 lineto
19.767 9.604 lineto
8.162 9.604 lineto
8.093 8.976 8.046 8.627 8.046 8.534 curveto
7.906 7.976 7.720 7.627 7.465 7.465 curveto
7.325 7.325 7.162 7.279 6.976 7.279 curveto
6.558 7.279 6.255 7.372 6.046 7.604 curveto
5.813 7.767 5.720 8.023 5.720 8.372 curveto
5.720 8.558 5.906 8.767 6.302 9.023 curveto
6.674 9.255 6.976 9.534 7.232 9.906 curveto
7.418 10.186 7.604 10.627 7.790 11.279 curveto
8.186 11.186 lineto
8.186 10.232 lineto
8.860 10.232 lineto
8.860 12.860 lineto
8.860 14.348 8.790 15.488 8.651 16.279 curveto
9.325 16.116 10.000 15.883 10.674 15.604 curveto
12.511 15.604 lineto
12.651 16.023 12.767 16.511 12.860 17.046 curveto
10.720 17.046 lineto
9.511 17.046 8.581 16.976 7.976 16.883 curveto
closepath
10.767 10.232 moveto
17.162 10.232 lineto
17.162 11.418 lineto
10.767 11.418 lineto
closepath
10.767 12.046 moveto
17.162 12.046 lineto
17.162 13.139 lineto
10.767 13.139 lineto
closepath
10.767 13.767 moveto
17.162 13.767 lineto
17.162 14.953 lineto
10.767 14.953 lineto
closepath
9.279 8.651 moveto
9.627 8.581 lineto
9.627 7.418 9.558 6.627 9.418 6.209 curveto
9.279 5.744 9.023 5.441 8.651 5.255 curveto
8.441 5.139 8.209 5.093 7.976 5.093 curveto
7.604 5.093 7.325 5.186 7.116 5.395 curveto
6.906 5.534 6.813 5.767 6.813 6.093 curveto
6.813 6.232 7.023 6.441 7.488 6.674 curveto
7.953 6.860 8.348 7.116 8.627 7.441 curveto
8.860 7.674 9.093 8.093 9.279 8.651 curveto
closepath
10.348 9.186 moveto
10.581 9.162 11.186 9.093 12.116 8.953 curveto
12.720 8.860 13.023 8.744 13.023 8.604 curveto
13.023 8.372 12.860 8.232 12.534 8.139 curveto
12.302 8.046 12.209 7.906 12.209 7.744 curveto
12.209 7.069 lineto
12.209 6.697 12.302 6.511 12.534 6.465 curveto
12.906 6.395 13.558 6.372 14.488 6.372 curveto
15.046 6.372 15.465 6.395 15.767 6.488 curveto
16.023 6.534 16.186 6.604 16.279 6.720 curveto
16.534 7.232 lineto
16.744 7.976 16.860 8.418 16.906 8.558 curveto
17.255 8.441 lineto
17.255 8.069 17.302 7.418 17.302 7.325 curveto
17.302 6.953 17.441 6.720 17.720 6.581 curveto
18.069 6.348 18.255 6.186 18.255 6.069 curveto
18.255 5.767 18.069 5.534 17.720 5.348 curveto
17.348 5.162 17.046 5.069 16.790 5.046 curveto
16.302 4.953 15.534 4.930 14.488 4.930 curveto
13.906 4.930 13.511 4.930 13.302 4.953 curveto
13.720 4.767 13.953 4.604 13.953 4.465 curveto
13.953 4.279 13.790 4.162 13.488 4.116 curveto
13.186 4.069 13.023 4.000 13.000 3.953 curveto
12.976 3.930 12.953 3.906 12.930 3.883 curveto
12.906 3.837 lineto
16.581 3.837 lineto
16.627 3.883 16.813 4.046 17.116 4.348 curveto
17.441 4.674 17.674 4.837 17.813 4.837 curveto
18.023 4.837 18.418 4.627 18.976 4.209 curveto
19.581 3.744 19.883 3.395 19.883 3.162 curveto
19.883 2.976 19.674 2.883 19.279 2.837 curveto
18.976 2.790 18.790 2.720 18.697 2.627 curveto
17.906 1.790 17.186 1.139 16.488 0.674 curveto
16.767 0.581 17.093 0.511 17.465 0.465 curveto
18.953 0.186 20.534 -0.023 22.255 -0.162 curveto
22.116 -0.534 lineto
21.604 -0.744 21.279 -1.093 21.093 -1.558 curveto
20.953 -1.953 20.883 -2.162 20.837 -2.162 curveto
20.511 -2.162 19.674 -2.000 18.348 -1.697 curveto
17.000 -1.348 15.906 -0.976 15.046 -0.604 curveto
14.906 -0.534 14.674 -0.418 14.651 -0.418 curveto
13.837 -0.790 13.000 -1.093 12.162 -1.372 curveto
10.255 -1.790 8.255 -2.069 6.162 -2.162 curveto
6.000 -1.813 lineto
8.186 -1.488 10.000 -1.046 11.488 -0.511 curveto
12.325 -0.139 12.953 0.139 13.372 0.372 curveto
13.069 0.581 12.860 0.767 12.744 0.906 curveto
12.302 1.232 11.860 1.674 11.395 2.255 curveto
11.069 2.000 10.837 1.813 10.697 1.720 curveto
9.813 1.116 8.720 0.511 7.418 -0.069 curveto
7.186 0.162 lineto
8.302 1.000 9.186 1.837 9.837 2.627 curveto
10.372 3.302 10.837 4.139 11.255 5.139 curveto
10.953 5.232 10.767 5.372 10.674 5.604 curveto
10.534 5.767 10.488 6.116 10.488 6.651 curveto
10.488 7.348 lineto
10.488 7.953 10.441 8.581 10.348 9.186 curveto
closepath
13.511 9.465 moveto
14.418 9.255 15.069 9.046 15.488 8.860 curveto
16.162 8.348 16.116 7.813 15.651 7.348 curveto
15.511 7.162 15.325 7.093 15.046 7.093 curveto
14.837 7.093 14.651 7.279 14.488 7.651 curveto
14.255 8.162 13.860 8.674 13.348 9.186 curveto
closepath
12.372 3.186 moveto
11.837 2.651 lineto
12.767 1.976 13.674 1.488 14.511 1.209 curveto
14.558 1.162 14.604 1.162 14.627 1.162 curveto
15.232 1.604 15.906 2.279 16.674 3.186 curveto
closepath
fill
} bind def

/Glyph0 {
newpath
0.000 9.000 moveto
467.000 9.000 lineto
467.000 8.000 lineto
0.000 8.000 lineto
closepath
fill
} bind def

%%EndResource: cache
%%EndProlog

%%EndProlog


%%Page: 1 1
save
gsave 64.000 743.000 translate Glyph1 grestore

showpage restore
%%DocumentFonts: Times-Roman
%%Pages: 1
%%Trailer
%%EOF
