%!PS-Adobe-3.0
%%BoundingBox: 64 48 531 794
%%Title: Untitled
%%Creator: yudit 3.0.9 GNU (C) Gaspar Sinai
%%CreationDate: 2023-02-10 22:46:36
%%Orientation: Portrait
%%DocumentMedia: A4 595 842 0 () ()
%%Pages: 1
%%PageOrder: Ascend
%%EndComments

%%BeginProlog
%%BeginResource: cache

/Glyph0 {
newpath
0.000 9.000 moveto
467.000 9.000 lineto
467.000 8.000 lineto
0.000 8.000 lineto
closepath
fill
} bind def

/Glyph1 {
newpath
1.639 0.000 moveto
1.639 15.814 lineto
4.789 15.814 lineto
8.532 4.617 lineto
8.878 3.570 9.126 2.793 9.288 2.276 curveto
9.460 2.847 9.741 3.689 10.129 4.811 curveto
13.915 15.814 lineto
16.731 15.814 lineto
16.731 0.000 lineto
14.714 0.000 lineto
14.714 13.236 lineto
10.118 0.000 lineto
8.230 0.000 lineto
3.656 13.462 lineto
3.656 0.000 lineto
closepath
fill
} bind def

%%EndResource: cache
%%EndProlog

%%EndProlog


%%Page: 1 1
save
gsave 64.000 743.000 translate Glyph1 grestore

showpage restore
%%DocumentFonts: Times-Roman
%%Pages: 1
%%Trailer
%%EOF
