/* XPM */
static const char *SS_DocumentXM[]={
"20 20 9 1",
". c None",
"a c #303030",
"# c #585858",
"d c #585c58",
"e c #787878",
"c c #989898",
"b c #a0a0a0",
"f c #c8ccc8",
"g c #f8fcf8",
"..........##########",
".........##aaaaaaaa#",
"........##abbbbbbba#",
".......##ac##ddeeba#",
"......##acfcfcfeeba#",
".....##agggggggggba#",
"....##acfgcfceccaba#",
"...##aecfgccceeccba#",
"..##aggggggffgfggba#",
".##accecfgceccaccba#",
"##aefcecfgffccafcba#",
"#abggggfggggggfgfba#",
"#abeffccffeefgcecba#",
"#abceffcefeecgffcba#",
"#abfgggffggfgggggba#",
"#abfaegddcecgcecdba#",
"#abfcfgcfcefcceccba#",
"#abbbbbbbbbbbbbbbba#",
"#aaaaaaaaaaaaaaaaaa#",
"####################"};
