/* XPM */
static const char *SS_EmbedRight[]={
"20 20 6 1",
". c None",
"a c #000000",
"b c #808080",
"d c #a0a0a0",
"# c #c3c3c3",
"c c #ffffff",
".....##############.",
".....#aaaaaaaaaaaab.",
".....#abbbbbbbbbbab.",
".....#abcccccccc#ab.",
".....#abcccccccc#ab.",
".....#ab#########ab.",
".....#aaaaaaaaaaaab.",
"......bbbabbbbbbbab.",
"........#abccccc#ab.",
"........#abccccc#ab.",
"........#abccccc#ab.",
".########ab######ab.",
".#aaaaaaaaaaaaaaaab.",
".#abbbbbbbbbbbbbbab.",
".#abcccccccccccc#ab.",
".#abcccccccccccc#ab.",
".#ab#############ab.",
".#aaaaaaaaaaaaaaaab.",
".#ddddddddddddddddd.",
"...................."};
