/* XPM */
static const char *SS_LB_DOS_XPM[] = {
/* columns rows colors chars-per-pixel */
"20 20 3 1",
"  c None",
". c Black",
"X c Black s s_80",
/* pixels */
"                    ",
"                    ",
"                    ",
"                    ",
"                    ",
"                    ",
"                    ",
"                    ",
"                    ",
"           .  .     ",
"           .  .     ",
"           .  .     ",
"       X   .  .     ",
"     X..   .  .     ",
"   X...........     ",
"     X..            ",
"       X            ",
"                    ",
"                    ",
"                    ",
};
