/* XPM */
static const char*SS_MagnifyMinus[]={
"20 20 15 1",
"i c #000000",
"d c #f8fcf8",
"l c #ffa858",
"j c #505050",
"g c #c0ffff",
"c c #4b7b82",
". c None",
"h c #57888d",
"b c #74b4bb",
"k c #c05800",
"a c #303030",
"m c #ff8000",
"# c #585858",
"e c #9ef5ff",
"f c #8ad8de",
".......#####........",
".....##aaaaa##......",
"...##aabbbbbaa##c...",
"..#aabbddeeeffaa#...",
"..#abedddeeeeffa#...",
".#abeddeeeeeeeffa#..",
".#aeddgeeeeeeeefa#..",
"#abddeeeeeeeeeefaa#.",
"#abdeehhhhhhhhefba#.",
"#abdeeiiiiiiijeeha#.",
"#abeeebbbbbbbbgfha#.",
"#abeeeeeeeeeeeffha#.",
".#abeeeeeeeeeefha#..",
".#abbeeeeeeeefhhaa#.",
"..#abeeeeeeffbhaaaa#",
"..#aabbbefffhhaaklla",
"...##aabbbhhaaakkmml",
".....##aaaaa##aakkml",
".......#####.##aakkm",
".........ccc..##aakm"};
