/* XPM */
static const char *SS_Redo[]={
"20 20 7 1",
". c None",
"b c #000000",
"c c #007120",
"e c #009630",
"a c #585858",
"d c #808080",
"# c #a0a0a0",
"....................",
"....................",
"......##...##.......",
".....#aa#..aa#......",
"....#abba#.bba#.....",
"....#abcba#bcba#....",
"#####abccbabccba#...",
"#daaaabcecbbcecba#..",
"#abccccceeccceecba#.",
"#abceeeeeeeeeeeecba#",
"#abceeeeeeeeeeeeebaa",
"#abceeeeeeeeeeeecbba",
"#abceeeeeecceeecbba.",
"#abcccccecbbcecbba..",
"#abbbbbccbbbccbba...",
".aaaabbcbbabcbba....",
"....#abbba.bbba.....",
".....#bba..bba......",
"......#a...#a.......",
"...................."};
