/* XPM */
static const char *SS_SedyGreen[]={
"20 20 4 1",
". c None",
"a c #006000",
"b c #008000",
"# c #303030",
"....................",
"....................",
"........#####.......",
".......#######......",
"......###aaa###.....",
".....###abbba###....",
"....###abbbbba###...",
"....##abbbbbbba##...",
"....##abbbbbbba##...",
"....##abbbbbbba##...",
"....###abbbbba###...",
".....###abbba###....",
"......###aaa###.....",
".......#######......",
"........#####.......",
"........#####.......",
"........#####.......",
"........#####.......",
"........#####.......",
"...................."};
