0672-n:06285E00040404040400000000000000
0672-r:06285E00040404040300000000000000
0673-n:0000000404040404040006285E000000
0673-r:0000000404040404030006285E000000
0675-n:03040314101010101000000000000000
0675-r:03040314101010100F00000000000000
0676-n:03040304000C120E0204186000000000
0676-r:0003040304000C120F02041860000000
0677-r:0023543324400C120F02041860000000
0678-l:0304030400080404F800000000000000
0678-m:0003040304000808F700000000000000
0678-n:03040304000708888681817E00000000
0678-r:0000000304030400078887817E000000
067C-l:0000001400080404F808140800000000
067C-m:0000001400000808F708140800000000
067C-n:00000000144081817E08140800000000
067C-r:00000014004080817E08140800000000
067D-l:0014000800080404F800000000000000
067D-m:0014000800000808F700000000000000
067D-n:00140008004081817E00000000000000
067D-r:00140008004080817E00000000000000
0681-l:0608060800384718E000000000000000
0681-m:0608060800708F32C100000000000000
0681-n:06080608708F3040808080413E000000
0681-r:0608060800708F3241808080403E0000
0682-l:0800080000384718E000000000000000
0682-m:0800080000708F32C100000000000000
0682-n:08000800708F3040808080413E000000
0682-r:0800080000708F3241808080403E0000
0685-l:0800140000384718E000000000000000
0685-m:0800140000708F32C100000000000000
0685-n:08001400708F3040808080413E000000
0685-r:0800140000708F3241808080403E0000
0689-n:00000000080402423C08140800000000
0689-r:00000000080804463908140800000000
068A-n:00000000080402423C00000800000000
068A-r:00000000080804463900000800000000
068B-n:20382870080402423C00000800000000
068B-r:20382870080804463900000800000000
068F-n:14000800080402423C00000000000000
068F-r:14000800080804463900000000000000
0690-n:14001400080402423C00000000000000
0690-r:14001400080804463900000000000000
0692-n:00140800000402020418600000000000
0692-r:00000014080000040704186000000000
0693-n:0000000000040202041C6A0400000000
0693-r:000000000000000407041C6A04000000
0694-n:00000000000402020418620000000000
0694-r:00000000000000040704186200000000
0695-n:00000000000402020418600014080000
0695-r:00000000000000040704186000140800
0696-n:00000000000402120418620000000000
0696-r:00000000000000041704186200000000
0697-n:00001400000402020418600000000000
0697-r:00000000140000040704186000000000
0699-n:14001400000402020418600000000000
0699-r:00001400140000040704186000000000
069A-l:0000000400011515EA00000400000000
069A-m:0000000800002A2AD500000800000000
069A-n:00000004000115151A88888A70000000
069A-r:00000004000015151A88888A70000000
069B-l:0000000000011515EA000A0004000000
069B-m:0000000000002A2AD500140008000000
069B-n:00000000000115151A88889065000200
069B-r:00000000000015151A88889065000200
069C-l:0004000A00011515EA000A0004000000
069C-m:0008001400002A2AD500140008000000
069C-n:0004000A000115151A88889065000200
069C-r:000004000A0015151A88889065000200
069D-l:0000000000062931DE00000A00000000
069D-m:0000000000062931DE00000A00000000
069D-n:000000000609319E8890650000000000
069D-r:00000000000609319E88906500000000
069E-l:04000A0000062931DE00000000000000
069E-m:04000A0000062931DE00000000000000
069E-n:04000A000609319E8888700000000000
069E-r:04000A00000609319E88887000000000
069F-l:04002A20202C3222FC00000000000000
069F-m:04002A20202C3222FD00000000000000
069F-n:04002A20202C32A27C00000000000000
069F-r:04002A20202C32A27D00000000000000
06A0-l:10002800000E1010FE00000000000000
06A0-m:08001400001C2418E700000000000000
06A0-n:2000500070808C7040808080413E0000
06A0-r:080014001E221C2241808080413E0000
06A1-l:000000000C120A06FC00000000000000
06A1-m:000000000C12120CF300000000000000
06A1-n:00000000064985837E00000000000000
06A1-r:00000000064989867D00000000000000
06A2-l:000000000C120A06FC00040000000000
06A2-m:000000000C12120CF300040000000000
06A2-n:00000000064985837E00020000000000
06A2-r:00000000064989867D00020000000000
06A3-l:000008000C120A06FC00100000000000
06A3-m:000008000C12120CF300100000000000
06A3-n:00000400064985837E00080000000000
06A3-r:00000400064989867D00080000000000
06A5-l:000000000C120A06FC000A0004000000
06A5-m:000000000C12120CF3000A0004000000
06A5-n:00000000064985837E000A0004000000
06A5-r:00000000064989867D000A0004000000
06A7-l:000008000C120A06FC00000000000000
06A7-m:000008000C12120CF300000000000000
06A7-n:0000040006090947818181423C000000
06A7-r:0000040000060949878181423C000000
06A8-l:080014000C120A06FC00000000000000
06A8-m:080014000C12120CF300000000000000
06A8-n:04000A0006090947818181423C000000
06A8-r:04000A0000060949878181423C000000
06AA-l:00001820403E0101FE00000000000000
06AA-m:00001820403E0101FE00000000000000
06AA-n:00001820403E01817E00000000000000
06AA-r:00001820403E01817E00000000000000
06AB-l:0002040A16100804F800000000000000
06AB-m:0002040A16100804FB00000000000000
06AB-n:000102050B4884827C00000000000000
06AB-r:000102050B4884827D00000000000000
06AC-l:0800061820100808F000000000000000
06AC-m:0800061820201008F700000000000000
06AC-n:04001921192101817E00000000000000
06AC-r:08003242324202867900000000000000
06AE-l:0000061820100808F000280010000000
06AE-m:0000061820201008F700140008000000
06AE-n:00001921192101817E00140008000000
06AE-r:00003242324202867900280010000000
06B0-l:0812240A16100804F800000000000000
06B0-m:0812240A16100804FB00000000000000
06B0-n:040912050B4884827C00000000000000
06B0-r:040912050B4884827D00000000000000
06B2-l:0812240810100804F800280000000000
06B2-m:0812240810100804FB00140000000000
06B2-n:04091204084884827C00140000000000
06B2-r:04091204084884827D00140000000000
06B4-l:4408A20408100804F800000000000000
06B4-m:4408A20408100804FB00000000000000
06B4-n:4409A204084482827C00000000000000
06B4-r:4409A204084884827D00000000000000
06B5-l:1408000808080808F000000000000000
06B5-m:1408000808080808F700000000000000
06B5-n:14080202020242828284780000000000
06B5-r:00140802020202020342828284780000
06B6-l:0800080808080808F000000000000000
06B6-m:0800080808080808F700000000000000
06B6-n:08020202020242828284780000000000
06B6-r:00080002020202020342828284780000
06B7-l:2000500808080808F000000000000000
06B7-m:2000500808080808F700000000000000
06B7-n:10022A02020242828284780000000000
06B7-r:10002802020202020342828284780000
06B8-l:0000080808080808F000140008000000
06B8-m:0000080808080808F700140008000000
06B8-n:00020202020242828284780014000800
06B8-r:00000004040404040744848890650002
06B9-l:0000001000080404F800000800000000
06B9-m:0000000800000808F700000400000000
06B9-n:000008000041818181423C0000040000
06B9-r:0000000000000801418181423C000400
06BA-l:0000000000080404F800000000000000
06BA-m:0000000000000808F700000000000000
06BC-l:0000001000080404F808140800000000
06BC-m:0000000800000808F708140800000000
06BC-n:000008000041818181423C0814080000
06BC-r:0000000000000801418181423C081408
06BD-l:0010002800080404F800000000000000
06BD-m:0008001400000808F700000000000000
06BD-n:080014000041818181423C0000000000
06BD-r:0000000008001401418181423C000000
06BF-l:0000080000384718E0000A0004000000
06BF-m:0000080000708F32C100140008000000
06BF-n:00001000708F3040948088413E000000
06BF-r:0000100000708F3241948088403E0000
06C2-n:38403840182422221C00000000000000
06C2-r:000038403840000C1300000000000000
06C3-n:00280000182422221C00000000000000
06C3-r:000000140000000C1300000000000000
06C4-n:00000000000C120E122C186000000000
06C4-r:0000000000000C120F122C1860000000
06CA-n:00001400000C120E0204186000000000
06CA-r:0000001400000C120F02041860000000
06CD-n:00000000204788088681817E00000000
06CD-r:0000000000204080078887817E000000
06CE-l:0000140800080404F800000000000000
06CE-m:0000001408000808F700000000000000
06CE-n:00000050200708888681817E00000000
06CE-r:0000000000005020078887817E000000
06CF-n:00000800000C120E0204186000000000
06CF-r:0000000800000C120F02041860000000
06D1-l:0000000000080404F800140008000000
06D1-m:0000000000000808F700140008000000
06D1-n:00000000000708888681817E00280010
06D1-r:0000000000000000078887817E280010
06D5-n:00000000182422221C00000000000000
06D5-r:00000010106888740300000000000000
06FA-l:0004000A00011515EA00000400000000
06FA-m:0008001400002A2AD500000800000000
06FA-n:0004000A000115151A88888A70000000
06FA-r:0004000A000015151A88888A70000000
06FB-l:0000040000062931DE00000400000000
06FB-m:0000040000062931DE00000400000000
06FB-n:000004000609319E8888720000000000
06FB-r:00000004000609319E88887200000000
06FC-l:00001000000E1010FE00001000000000
06FC-m:00000800001C2418E700000800000000
06FC-n:0040000070808C7040808880413E0000
06FC-r:000800001E221C2241808880413E0000
