0020:00000000000000000000000000000000
0021:00000000101010101010100010100000
0022:00004444444400000000000000000000
0023:000000001212127E24247E4848480000
0024:00000000107C9290701C12927C100000
0025:000000006294946810102C52528C0000
0026:000000003844444438728A848C720000
0027:00001010101000000000000000000000
0028:00000008101020202020202010100800
0029:00000020101008080808080810102000
002A:00000000000010925438549210000000
002B:000000000000101010FE101010000000
002C:00000000000000000000000018080810
002D:0000000000000000007E000000000000
002E:00000000000000000000000018180000
002F:00000000020204080810102040400000
0030:00000000182442424242424224180000
0031:000000001030501010101010107C0000
0032:000000003C4242020C102040407E0000
0033:000000003C4242021C020242423C0000
0034:00000000040C142444447E0404040000
0035:000000007E4040407C020202423C0000
0036:000000001C2040407C424242423C0000
0037:000000007E0202040404080808080000
0038:000000003C4242423C424242423C0000
0039:000000003C4242423E02020204380000
003A:00000000000018180000001818000000
003B:00000000000018180000001808081000
003C:00000000000408102040201008040000
003D:000000000000007E0000007E00000000
003E:00000000004020100804081020400000
003F:000000003C4242020408080008080000
0040:000000001C224A565252524E201E0000
0041:0000000018242442427E424242420000
0042:000000007C4242427C424242427C0000
0043:000000003C42424040404042423C0000
0044:00000000784442424242424244780000
0045:000000007E4040407C404040407E0000
0046:000000007E4040407C40404040400000
0047:000000003C424240404E4242463A0000
0048:00000000424242427E42424242420000
0049:000000007C10101010101010107C0000
004A:000000003E0808080808088888700000
004B:00000000424448506060504844420000
004C:000000004040404040404040407E0000
004D:00000000424266665A5A424242420000
004E:0000000042626252524A4A4646420000
004F:000000003C42424242424242423C0000
0050:000000007C4242427C40404040400000
0051:0000000078848484848484B4CC780600
0052:000000007C4242427C48444442420000
0053:000000003C424240300C0242423C0000
0054:00000000FE1010101010101010100000
0055:000000004242424242424242423C0000
0056:00000000828282444444282810100000
0057:00000000424242425A5A666642420000
0058:00000000424224241818242442420000
0059:00000000828244442810101010100000
005A:000000007E02020408102040407E0000
005B:0000001C101010101010101010101C00
005C:00000000404020101008080402020000
005D:00000038080808080808080808083800
005E:00001824420000000000000000000000
005F:0000000000000000000000000000FE00
0060:00201008000000000000000000000000
0061:0000000000003C42023E4242463A0000
0062:0000004040405C6242424242625C0000
0063:0000000000003C4240404040423C0000
0064:0000000202023A4642424242463A0000
0065:0000000000003C42427E4040423C0000
0066:0000000C1010107C1010101010100000
0067:0000000000023A44444438203C42423C
0068:0000004040405C624242424242420000
0069:000000101000301010101010107C0000
006A:0000000404000C040404040404044830
006B:00000000404044485060504844420000
006C:000000003010101010101010107C0000
006D:000000000000EC929292929292920000
006E:0000000000005C624242424242420000
006F:0000000000003C4242424242423C0000
0070:0000000000005C6242424242625C4040
0071:0000000000003A4642424242463A0202
0072:0000000000005C624240404040400000
0073:0000000000003C4240300C02423C0000
0074:0000000010107C1010101010100C0000
0075:000000000000424242424242463A0000
0076:00000000000042424224242418180000
0077:000000000000829292929292926C0000
0078:00000000000042422418182442420000
0079:0000000000004242424242261A02023C
007A:0000000000007E0204081020407E0000
007B:00000018202010102020101020201800
007C:00001010101010101010101010101010
007D:00000030080810100808101008083000
007E:00000062928C00000000000000000000
007F:0000000000000000000073D04A104BD04A1073DE000000000000000000000000
0080:00000000000000000000719C4A5273D24252425C000000000000000000000000
0081:00000000000000000000499C4A527A5C4A504990000000000000000000000000
0082:0000000000000000000073924A52739E4A127212000000000000000000000000
0083:000000000000000000004B926A525B9E4A524B92000000000000000000000000
0084:0000000000000000000074B826A425A424A474B8000000000000000000000000
0085:000000000000000000004BD06A105BD04A104BDE000000000000000000000000
0086:0000000000000000000039CC4212319E08527392000000000000000000000000
0087:0000000000000000000079CC4212799E40527B92000000000000000000000000
0088:000000000000000000004B9C4920791849044938000000000000000000000000
0089:0000000000000000000025DC24843C8424842498000000000000000000000000
008A:0000000000000000000045CC4490448828841098000000000000000000000000
008B:00000000000000000000721C4A127212421243DC000000000000000000000000
008C:0000000000000000000072124A127212421243CC000000000000000000000000
008D:0000000000724A72524A000000000000
008E:0000000000000000000039DC4202318C0850739E000000000000000000000000
008F:0000000000000000000039DC4202318C0842739C000000000000000000000000
0090:0000000000000000000071CE4A104A0C4A0271DC000000000000000000000000
0091:0000000000000000000072444A4C72444244418E000000000000000000000000
0092:00000000000000000000725C4A42724C4250419E000000000000000000000000
0093:000000000000000000003B9C4120311809047138000000000000000000000000
0094:0000000000000000000039D24212421E421239D2000000000000000000000000
0095:00000000000000000000228836882AA822D82288000000000000000000000000
0096:000000000000000000003B8C4252339E0A127212000000000000000000000000
0097:000000000000000000007B8C42527B9E42127A12000000000000000000000000
0098:00000000000000000000398E4250324C0A42719C000000000000000000000000
0099:00000000000000000000339A442225A214A2639A000000000000000000000000
009A:0000000000000000000039DC420832080A0871DC000000000000000000000000
009B:0000000000000000000039DC4208418840483B9C000000000000000000000000
009C:00000000003E44241464000000000000
009D:0000000000000000000031CE4A1049904850338E000000000000000000000000
009E:00000000000000000000391025B0395021102110000000000000000000000000
009F:00000000000000000000338E4A507B904A104A0E000000000000000000000000
00A0:00000000000000000000000000000000
00A1:00000000101000101010101010100000
00A2:0000000010107C929090927C10100000
00A3:000000001C202020F82020207CC20000
00A4:000000000042243C24243C2442000000
00A5:0000000082442810FE10FE1010100000
00A6:00000000101010100000101010100000
00A7:000000003C42403C42423C02423C0000
00A8:24240000000000000000000000000000
00A9:000000003C4299A5A1A1A599423C0000
00AA:000038043C443C007C00000000000000
00AB:00000000001212242448242412120000
00AC:000000000000000000007E0202020000
00AD:0000000000000000007E000000000000
00AE:000000003C42B9A5A5B9A9A5423C0000
00AF:00007E00000000000000000000000000
00B0:10282810000000000000000000000000
00B1:00000000101010FE10101000FE000000
00B2:00003844043840407C00000000000000
00B3:00003844043804443800000000000000
00B4:00081020000000000000000000000000
00B5:0000000000000000444444446C544040
00B6:0000003E7A7A7A7A3A0A0A0A0A0A0E00
00B7:00000000000000001818000000000000
00B8:00000000000000000000000000000830
00B9:00000818280808080800000000000000
00BA:00003844444438007C00000000000000
00BB:00000000004848242412242448480000
00BC:00000000226224282812162A4E420000
00BD:000000002262242828141A22444E0000
00BE:00000000621224186812162A4E420000
00BF:000000000808000808304242423C0000
00C0:300C000018242442427E424242420000
00C1:0C30000018242442427E424242420000
00C2:1824000018242442427E424242420000
00C3:324C000018242442427E424242420000
00C4:2424000018242442427E424242420000
00C5:1824180018242442427E424242420000
00C6:000000003E509090FE909090909E0000
00C7:000000003C42424040404042423C0830
00C8:300C00007E4040407C404040407E0000
00C9:0C3000007E4040407C404040407E0000
00CA:182400007E4040407C404040407E0000
00CB:242400007E4040407C404040407E0000
00CC:300C00007C10101010101010107C0000
00CD:186000007C10101010101010107C0000
00CE:304800007C10101010101010107C0000
00CF:484800007C10101010101010107C0000
00D0:0000000078444242F242424244780000
00D1:324C000042626252524A4A4646420000
00D2:300C00003C42424242424242423C0000
00D3:0C3000003C42424242424242423C0000
00D4:182400003C42424242424242423C0000
00D5:324C00003C42424242424242423C0000
00D6:242400003C42424242424242423C0000
00D7:00000000000000422418244200000000
00D8:000000023A44464A4A525262225C4000
00D9:300C00004242424242424242423C0000
00DA:0C3000004242424242424242423C0000
00DB:182400004242424242424242423C0000
00DC:242400004242424242424242423C0000
00DD:18600000828244442810101010100000
00DE:00000040407844424244784040400000
00DF:00000000384444447C424242625C0000
00E0:0000300C00003C42023E4242463A0000
00E1:00000C3000003C42023E4242463A0000
00E2:0000182400003C42023E4242463A0000
00E3:0000324C00003C42023E4242463A0000
00E4:0000242400003C42023E4242463A0000
00E5:0018241800003C42023E4242463A0000
00E6:0000000000007C92127E9090927C0000
00E7:0000000000003C4240404040423C0830
00E8:0000300C00003C42427E4040423C0000
00E9:00000C3000003C42427E4040423C0000
00EA:0000182400003C42427E4040423C0000
00EB:0000242400003C42427E4040423C0000
00EC:000060180000301010101010107C0000
00ED:000018600000301010101010107C0000
00EE:000030480000301010101010107C0000
00EF:000048480000301010101010107C0000
00F0:0000320C1422023E42424242423C0000
00F1:0000324C00005C624242424242420000
00F2:0000300C00003C4242424242423C0000
00F3:00000C3000003C4242424242423C0000
00F4:0000182400003C4242424242423C0000
00F5:0000324C00003C4242424242423C0000
00F6:0000242400003C4242424242423C0000
00F7:0000000000001800007E000018000000
00F8:0000000000023C464A4A5252623C4000
00F9:0000300C0000424242424242463A0000
00FA:00000C300000424242424242463A0000
00FB:000018240000424242424242463A0000
00FC:000024240000424242424242463A0000
00FD:00000C3000004242424242261A02023C
00FE:00000000404078444444485060404040
00FF:0000242400004242424242261A02023C
0100:003C000018242442427E424242420000
0101:0000003C00003C42023E4242463A0000
0102:42423C0018242442427E424242420000
0103:0042423C00003C42023E4242463A0000
0104:000000003048488484FC848484840806
0105:0000000000007884047C84848C740806
0106:0C3000003C42424040404042423C0000
0107:00000C3000003C4240404040423C0000
0108:182400003C42424040404042423C0000
0109:0000182400003C4240404040423C0000
010A:101000003C42424040404042423C0000
010B:0000101000003C4240404040423C0000
010C:241800003C42424040404042423C0000
010D:0000241800003C4240404040423C0000
010E:48300000784442424242424244780000
010F:2418000202023A4642424242463A0000
0110:0000000078444242F242424244780000
0111:0000041E0404748C848484848C740000
0112:003C00007E4040407C404040407E0000
0113:0000003C00003C42427E4040423C0000
0114:42423C007E4040407C404040407E0000
0115:000042423C003C42427E4040423C0000
0116:101000007E4040407C404040407E0000
0117:0000101000003C42427E4040423C0000
0118:000000007E4040407C404040407E0806
0119:0000000000003C42427E4040423C100C
011A:241800007E4040407C404040407E0000
011B:0000241800003C42427E4040423C0000
011C:182400003C424240404E4242463A0000
011D:0000182400023A44444438203C42423C
011E:42423C003C424240404E4242463A0000
011F:0042423C00023A44444438203C42423C
0120:101000003C424240404E4242463A0000
0121:0000101000023A44444438203C42423C
0122:000000003C424240404E4242463A0830
0123:00000C1000023A44444438203C42423C
0124:18240000424242427E42424242420000
0125:3048004040405C624242424242420000
0126:000000004242FF42427E424242420000
0127:000040F040405C624242424242000000
0128:324C00003E08080808080808083E0000
0129:0000324C0000180808080808083E0000
012A:007800007C10101010101010107C0000
012B:000000780000301010101010107C0000
012C:42423C003E08080808080808083E0000
012D:000042423C00180808080808083E0000
012E:000000007C10101010101010107C100C
012F:000000101000301010101010107C100C
0130:101000007C10101010101010107C0000
0131:000000000000301010101010107C0000
0132:000000004242424242420202423C0000
0133:00004444000044444444444434044438
0134:182400003E0808080808088888700000
0135:00000C1200000C040404040404044830
0136:000000004244485060605048444220C0
0137:000000004040444850605048444220C0
0138:00000000000042444870704844420000
0139:186000004040404040404040407E0000
013A:186000003010101010101010107C0000
013B:000000004040404040404040407E0830
013C:000000003010101010101010107C1060
013D:241800004040404040404040407E0000
013E:483000003010101010101010107C0000
013F:000000004040404044444040407E0000
0140:000000003010101014141010107C0000
0141:000000004040485060C04040407E0000
0142:000000003010141830501010107C0000
0143:0C30000042626252524A4A4646420000
0144:00000C3000005C624242424242420000
0145:0000000042626252524A4A46464220C0
0146:0000000000005C6242424242424220C0
0147:2418000042626252524A4A4646420000
0148:0000241800005C624242424242420000
0149:0060202040005C624242424242420000
014A:000000005C62424242424242424C0000
014B:0000000000005C62424242424242020C
014C:003C00003C42424242424242423C0000
014D:0000003C00003C4242424242423C0000
014E:42423C003C42424242424242423C0000
014F:000042423C003C4242424242423C0000
0150:66880000788484848484848484780000
0151:00006688000078848484848484780000
0152:000000006E9090909C909090906E0000
0153:0000000000006C92929E9090926C0000
0154:0C3000007C4242427C48444442420000
0155:00000C3000005C624240404040400000
0156:000000007C4242427C484444424220C0
0157:0000000000005C6242404040404020C0
0158:241800007C4242427C48444442420000
0159:0000241800005C624240404040400000
015A:0C3000003C424240300C0242423C0000
015B:00000C3000003C4240300C42423C0000
015C:182400003C424240300C0242423C0000
015D:0000182400003C4240300C02423C0000
015E:000000003C424240300C0242423C0830
015F:0000000000003C4240300C02423C0830
0160:241800003C424240300C0242423C0000
0161:0000241800003C4240300C02423C0000
0162:00000000FE1010101010101010101060
0163:0000000010107C1010101010100C0830
0164:48300000FE1010101010101010100000
0165:2418000010107C1010101010100C0000
0166:00000000FE1010141830501010100000
0167:0000000010107C1014183050100C0000
0168:324C00004242424242424242423C0000
0169:0000324C0000424242424242463A0000
016A:003C00004242424242424242423C0000
016B:0000003C0000424242424242463A0000
016C:42423C004242424242424242423C0000
016D:0042423C0000424242424242463A0000
016E:182418004242424242424242423C0000
016F:000018241800424242424242463A0000
0170:66880000848484848484848484780000
0171:0000668800008484848484848C740000
0172:000000004242424242424242423C100C
0173:0000000000008484848484848C740806
0174:18240000424242425A5A666642420000
0175:000030480000829292929292926C0000
0176:30480000828244442810101010100000
0177:0000182400004242424242261A02023C
0178:48480000828244442810101010100000
0179:0C3000007E02020408102040407E0000
017A:00000C3000007E0204081020407E0000
017B:101000007E02020408102040407E0000
017C:0000101000007E0204081020407E0000
017D:241800007E02020408102040407E0000
017E:0000241800007E0204081020407E0000
017F:0000000C101010301010101010100000
0180:00000040F0405C6242424242625C0000
0181:000000007CA2A2223C222222223C0000
0182:000000007E4040407C424242427C0000
0183:000000007E40405C62424242625C0000
0184:00000000602020203C222222223C0000
0185:000000000000602020203C22223C0000
0186:000000003C42420202020242427C0000
0187:00000608788888808080808888700000
0188:00000000060878888080808088700000
0189:0000000078444242F242424244780000
018A:0000000078A4A2222222222224380000
018B:000000007E0202023E424242423E0000
018C:000000007E02023A46424242463A0000
018D:0000000000003C424242422418040438
018E:000000007E0202023E020202027E0000
018F:0000000018244202027E424224180000
0190:000000003C42424038404042423C0000
0191:000000003E2020203C2020202020C000
0192:0000000C1010107C1010101010106000
0193:000000067888888080B8888898680000
0194:00000000424242242418182424180000
0195:00000040404040724A4A4A4A4A440000
0196:000000007010101010101010100C0000
0197:000000007C1010107C101010107C0000
0198:00000000464A50506060504844420000
0199:00000030404044485060504844420000
019A:00000000301010107C101010107C0000
019B:00000000242810304818242442420000
019C:000000009292929292929292926E0000
019D:00000000222232322A2A26262222C000
019E:0000000000005C624242424242420202
019F:000000003C4242427E424242423C0000
01A0:000000023A4444444444444444380000
01A1:0000000000023A444444444444380000
01A2:00000000364A4A4A4A4A4A4A4A320202
01A3:000000000000364A4A4A4A4A4A320202
01A4:000000007CA2A2223C20202020200000
01A5:000000000006B8C888888888C8B08080
01A6:00000000E04078444478504844420000
01A7:000000003C4242020C304042423C0000
01A8:0000000000003C42020C3040423C0000
01A9:000000007E40201008081020407E0000
01AA:00000020505030101010101010100C00
01AB:0000000010107C1010101010100C0418
01AC:000000007E9090101010101010100000
01AD:0000000C1010107C10101010100C0000
01AE:00000000FE1010101010101010100C00
01AF:000002028C8888888888888888700000
01B0:0000000002028C888888888898680000
01B1:00000000422424424242424224180000
01B2:000000004C4242424242424448300000
01B3:0000000062A222141408080808080000
01B4:00000000000688888888884838080870
01B5:000000007E0204083C102040407E0000
01B6:0000000000007E04083C1020407E0000
01B7:000000007E0408101C020202463C0000
01B8:000000007E20100838404040623C0000
01B9:0000000000007C20100838404040423C
01BA:0000000000003E04081C02023C40423C
01BB:000000003C424204087E2040407E0000
01BC:000000007E2020203C020202423C0000
01BD:0000000000007E20203C0202423C0000
01BE:0000000010107C101018040444380000
01BF:0000000000005C624242444850604040
01C0:00000010101010101010101010100000
01C1:00000028282828282828282828280000
01C2:000000101010107C107C101010100000
01C3:00000000101010101010100010100000
01C4:0A040000CEA2A2A2A4A4A8A8A8CE0000
01C5:00000A04C0A0AEA2A2A4A4A8A8CE0000
01C6:00000A2420206EA2A2A4A4A8A86E0000
01C7:000000008E8282828282829292EC0000
01C8:00000002828086828282828282F20418
01C9:00000001612023212121212121F9020C
01CA:00000000969292D2D2B2B29A9A940000
01CB:000000029290D6D2D2B2B2B292922418
01CC:000000020200A6D29292929292922418
01CD:2418000018242442427E424242420000
01CE:0000241800003C42023E4242463A0000
01CF:483000007C10101010101010107C0000
01D0:000048300000301010101010107C0000
01D1:241800003C42424242424242423C0000
01D2:0000241800003C4242424242423C0000
01D3:241800004242424242424242423C0000
01D4:000024180000424242424242463A0000
01D5:3C0024004242424242424242423C0000
01D6:003C00242400424242424242463A0000
01D7:0C3000240042424242424242423C0000
01D8:0C3000242400424242424242463A0000
01D9:241800240042424242424242423C0000
01DA:241800242400424242424242463A0000
01DB:300C00240042424242424242423C0000
01DC:300C00242400424242424242463A0000
01DD:0000000000003C4202027E42423C0000
01DE:3C00240018242442427E424242420000
01DF:003C002424003C42023E4242463A0000
01E0:3C00180018242442427E424242420000
01E1:003C001010003C42023E4242463A0000
01E2:007800003E509090FE909090909E0000
01E3:0000007800007C92127E9090927C0000
01E4:0000000078848480809C849E847C0000
01E5:000000000004748888887040789E8478
01E6:241800003C424240404E4242463A0000
01E7:0000241800023A44444438203C42423C
01E8:24180000424448506060504844420000
01E9:48300000404044485060504844420000
01EA:000000003C42424242424242423C100C
01EB:0000000000003C4242424242423C100C
01EC:003C00003C42424242424242423C100C
01ED:0000003C00003C4242424242423C100C
01EE:241800007E0408101C020202463C0000
01EF:0000241800003E0408101C020202423C
01F0:0000120C00000C040404040404044830
01F1:00000000CEA2A2A2A4A4A8A8A8CE0000
01F2:00000000C0A0AEA2A2A4A4A8A8CE0000
01F3:0000002020206EA2A2A4A4A8A86E0000
01F4:0C3000003C424240404E4242463A0000
01F5:00000C3000023A44444438203C42423C
01F6:000000004848484A7A4A4A4A4A440000
01F7:000000005C6242424448506040404000
01F8:00300C0042626252524A4A4646420000
01F9:000000300C005C624242424242420000
01FA:0C30182418182424427E424242420000
01FB:0C3000182418003C42023E42463A0000
01FC:0C3000003E509090FE909090909E0000
01FD:00000C3000007C92127E9090927C0000
01FE:0C3000023A44464A4A525262225C4000
01FF:00000C3000023C464A4A5252623C4000
0200:CC22000018242442427E424242420000
0201:0000CC2200003C42023E4242463A0000
0202:3C42420018242442427E424242420000
0203:00003C4242003C42023E4242463A0000
0204:CC2200007E4040407C404040407E0000
0205:0000CC2200003C42427E4040423C0000
0206:3C4242007E4040407C404040407E0000
0207:00003C4242003C42427E4040423C0000
0208:CC2200003E08080808080808083E0000
0209:0000CC220000180808080808083E0000
020A:3C4242003E08080808080808083E0000
020B:00003C424200180808080808083E0000
020C:CC2200003C42424242424242423C0000
020D:0000CC2200003C4242424242423C0000
020E:3C4242003C42424242424242423C0000
020F:00003C4242003C4242424242423C0000
0210:CC2200007C4242427C48444442420000
0211:0000CC2200005C624240404040400000
0212:3C4242007C4242427C48444442420000
0213:00003C4242005C624240404040400000
0214:CC2200004242424242424242423C0000
0215:0000CC220000424242424242463A0000
0216:3C4242004242424242424242423C0000
0217:00003C424200424242424242463A0000
0218:000000003C424240300C0242423C0810
0219:0000000000003C4240300C02423C0810
021A:00000000FE1010101010101010100408
021B:0000000010107C1010101010100C2040
021C:000000003C4242020C340202023C0000
021D:0000000000003C42020C32020C300000
021E:00241800424242427E42424242420000
021F:002418004040405C6242424242420000
0220:000000005C6242424242424242420202
0222:0000000008244242243C4242423C0000
0223:00000000000024444830484444380000
0224:000000007E02020408102040407E0204
0225:0000000000007E0204081020407E0204
0226:1010000018242442427E424242420000
0227:0000101000003C42023E4242463A0000
0228:000000007E4040407C404040407E0830
0229:0000000000003C42427E4040423C0830
022A:3C0024003C42424242424242423C0000
022B:003C002424003C4242424242423C0000
022C:3C00324C003C424242424242423C0000
022D:003C00324C003C4242424242423C0000
022E:101000003C42424242424242423C0000
022F:0000101000003C4242424242423C0000
0230:3C0010003C42424242424242423C0000
0231:003C001010003C4242424242423C0000
0232:003E0000414122221408080808080000
0233:0000003C00004242424242261A02023C
0250:0000000000005C6242427C40423C0000
0251:0000000000003A46424242464A320000
0252:0000000000004C5262424242625C0000
0253:0000003840405C6242424242625C0000
0254:0000000000003C4202020202423C0000
0255:0000000000003C424040404C523C4000
0256:000000080808689888888888986A0400
0257:000000040A0868988888888898680000
0258:0000000000003C42427E0202423C0000
0259:0000000000003C4202027E42423C0000
025A:000000000000728C1868888888700000
025B:0000000000003C42403C4040423C0000
025C:0000000000003C42023C0202423C0000
025D:000000000000728C0870080888700000
025E:0000000000003C42425C4242423C0000
025F:000000000000180808083E0808089060
0260:0000000000046A988888889868088870
0261:0000000000003A46424242463A02423C
0262:0000000000003C4240404E42423E0000
0263:00000000000042424224241818242418
0264:00000000000042422424181824180000
0265:0000000000424242424242463A020202
0266:0000003840405C624242424242420000
0267:0000003840405C6242424242424A0400
0268:0000001010003010107C1010107C0000
0269:00000000000020202020202020180000
026A:0000000000007C1010101010107C0000
026B:00000000180808083A4C0808083E0000
026C:0000000018080838483E0808083E0000
026D:00000000301010101010101010140800
026E:0000000060203E2224282C2222FA120C
026F:000000000000929292929292926E0000
0270:000000000000929292929292926E0202
0271:000000000000EC929292929292820C00
0272:0000000000002C322222222222A24000
0273:000000000000B0C888888888888A0400
0274:000000000000424262524A4642420000
0275:0000000000003C42427E4242423C0000
0276:0000000000006E90909C9090906E0000
0277:0000000000007C8282929292926C0000
0278:0000000010107C9292929292927C1010
0279:000000000000020202020242463A0000
027A:000000000202020202020242463A0000
027B:000000000000080808080888986A0400
027C:0000000000005C624240404040404040
027D:0000000000005C624240404040502000
027E:0000000000003C424240404040400000
027F:0000000000003C424202020202020000
0280:0000000000007C42427C444242420000
0281:000000000000424242447C42427C0000
0282:0000000000003C4240300C02427C4030
0283:0000000C101010101010101010106000
0284:0000000C1010101010107C1010106000
0285:00000000000060101010101010100C00
0286:000000060808080808080808384E3000
0287:00000000601010101010107C10100000
0288:0000000010107C101010101010120C00
0289:000000000000444444FE44444C340000
028A:00000000000042244242424224180000
028B:0000000000004C424242424448300000
028C:00000000000018182424244242420000
028D:0000000000006C929292929292820000
028E:000000001E2040586442424242420000
028F:00000000000082824428101010100000
0290:000000000000F8101020204040F80806
0291:000000000000FC040810204C92FC2000
0292:0000000000003E0408101C020202423C
0293:0000000000003E0408101C0202324A3C
0294:000000003C4242020408080808080000
0295:000000003C4242402010101010100000
0296:000000000808080808040242423C0000
0297:0000000000003C42404040404040423C
0298:0000000000003C42425A5A42423C0000
0299:0000000000007C42427C4242427C0000
029A:0000000000003C42423A4242423C0000
029B:000000000000748A8080988888780000
029C:0000000000004444447C444444440000
029D:0000000404000C0404040404043E4830
029E:0000000000004222120A060A12220202
029F:000000000000404040404040407E0000
02A0:0000000000046A988888888898680808
02A1:000000003C4242020408083E08080000
02A2:000000003C4242402010107C10100000
02A3:0000002020207EA2A4A4A8A8B07E0000
02A4:0000002020207EA2A4A8ACA2A262120C
02A5:0000002020207EA2A4A8B0B4AA7C0800
02A6:000000004040EC5050484442423C0000
02A7:000000064848F8484848484848380830
02A8:000000004040EC52505050545A3C0800
02A9:00000000609080DCA2A2A2A2A2A20418
02AA:000000004040404E50504C42427C0000
02AB:00000000404040407E444850607E0000
02AC:000000829292926C00829292926C0000
02AD:000000007E42424200007E4242420000
02B0:00000000404058644444000000000000
02B1:00000038444058644444000000000000
02B2:00000004000404042418000000000000
02B3:00000000586440404000000000000000
02B4:000000000404044C3400000000000000
02B5:00000000080808986806000000000000
02B6:00000000444878444478000000000000
02B7:00000000445454280000000000000000
02B8:0000000044443C043800000000000000
02B9:00000000081020000000000000000000
02BA:00000000122448000000000000000000
02BB:00000000081010180000000000000000
02BC:00000000180808100000000000000000
02BD:00000000181010080000000000000000
02BE:00000030080404083000000000000000
02BF:0000000C102020100C00000000000000
02C0:0000003C4202021C1010000000000000
02C1:0000003C424040380808000000000000
02C2:00000004081020100804000000000000
02C3:00000020100804081020000000000000
02C4:00000000102844820000000000000000
02C5:00000000824428100000000000000000
02C6:00000000182400000000000000000000
02C7:00000000241800000000000000000000
02C8:00000010101010000000000000000000
02C9:000000003C0000000000000000000000
02CA:000000000C3000000000000000000000
02CB:00000000300C00000000000000000000
02CC:00000000000000000000000010101010
02CD:000000000000000000000000003C0000
02CE:00000000000000000000000000300C00
02CF:000000000000000000000000000C3000
02D0:00000000000000381000001038000000
02D1:00000000000000003810000000000000
02D2:00000000000030080404083000000000
02D3:0000000000000C102020100C00000000
02D4:00000000000000101010107C00000000
02D5:000000000000007C1010101000000000
02D6:0000000000000010107C101000000000
02D7:0000000000000000007C000000000000
02D8:000042423C0000000000000000000000
02D9:00001818000000000000000000000000
02DA:00001824180000000000000000000000
02DB:0000000000000000000000000000100C
02DC:0000324C000000000000000000000000
02DD:00006688000000000000000000000000
02DE:000000000000002060A21C0000000000
02DF:00000000422418244200000000000000
02E0:00000000442810282810000000000000
02E1:00003010101010380000000000000000
02E2:000000003C4038047800000000000000
02E3:00000000442810284400000000000000
02E4:00003C40403808000000000000000000
02E5:0000007C040404040404040404040000
02E6:00000004047C04040404040404040000
02E7:00000004040404047C04040404040000
02E8:00000004040404040404047C04040000
02E9:000000040404040404040404047C0000
02EA:000000000000000040404040407C0000
02EB:000000000000002020203C2020200000
02EC:00000000000000000000004428100000
02ED:00007E007E0000000000000000000000
02EE:00006622224400000000000000000000
EE00:00302824223E20202020202020202000
EE01:00302824222224283020202020202000
EE02:00828244442828101028284444828200
EE03:00103854921010101010101010101000
EE04:0082C2A2928A868282C2A2928A868200
EE05:00101010101010D03816101010101000
EE06:00824428102844444444281028448200
EE07:00442810284480808080442810284400
EE08:00002018204040808080404020182000
EE09:000000384482C6AA92AAC68244380000
EE0A:001010103828282824745454CA8A8A00
EE0B:00101010D0381610D038161010101000
EE0C:00008244281028448244281028448200
EE0D:001010D0381610101010101010101000
EE0E:0000C030181610101010101010101000
EE0F:0080C0A0908880808080808080808000
EE10:00101814121010101010109050301000
EE11:00101028284444828244442828101000
EE12:0010101038282828247454544AEAAA00
EE13:0000003844828282928A868244380000
EE14:00C0A0908890A0C0C0A0908890A0C000
EE15:00000810204040808080404020100800
EE16:00000E32424282828282824242320E00
EE17:00001824428080808080804224180000
EE18:00001824448E80808080804224180000
EE19:00824222120A06060A12122242428200
EE1A:004428102844808080804028324C0000
EE1B:00C0A09088C4A09088C4A09088848000
EE1C:008282C2A2928A868282828282828200
EE1D:00080808101010382828444444828200
EE1E:00001010101028282844444482828200
EE1F:00101010101010101010101010101000
EE20:0082848890A0C0808080808080808000
EE21:00929244442828101028284444929200
EE22:00A2A2545428281010282854548A8A00
EE23:0082C6AA9282828282828292AAC68200
EE24:008282C6C6AAAA9292AAAAC6C6828200
EE25:00020202020242724E42404040404000
EE26:0000827C4482828282828282447C8200
EE27:0082C6EEBA9282828282828282828200
EE28:0082C2A2928AC6A2928AC6A2928A8600
EE29:00929254543838101010101010101000
EE2F:00000000000000303000000000000000
EE31:00001010101010101010101010101000
EE35:00008282824444442828281010101000
EE3A:00008282444428381038284444828200
EE3B:00009292925454545438383810101000
EE3C:00009292545438381038385454929200
EE3D:0000929254543810FF10385454929200
EE40:008282C4C4A8A89090A8A8C4C4828200
EE41:00302824223E20A060302C2020202000
EE42:0030509078282828247454544AEAAA00
EE43:000000000000638C945208200820082008200820082008209452638C00000000
EE44:008282444428E8381E28284444828200
EE45:0000010011101110111029284544838201000100010001000100010001000000
EE46:000006080A081308228842487E28021802080208020802080208020802080000
EE47:000006100A201240228043107E20024002800300020002000200020002000000
EE48:000006080A08130822884248222812180A080608020802080208020802080000
EE49:0000208020C0112011100A080BF8040004000A000A0011001100208020800000
EE4A:008A8A44442A2A10102A2A44448A8A00
EE4B:0082824444292E101028284444828200
EE4C:008A8A44442A2A101028284444828200
EE4D:000020802080114011400A200A20040004000A200A2011401140208020800000
EE4E:00103854921010111214121112141800
EE4F:00103854921010103854929254381000
EE50:000020C030A028902488228421FC208020803080288024802280218020800000
EE51:0000410061845148493045204340414041406140514049204510430841040000
EE52:00000410063005500490041004103F1004100410041004900550063004100000
EE53:000003800C60783C482410101010701CD0161010101018303458638C00000000
EE54:0000183024484384010001000100010001000100010001000100010001000000
EE55:00181412392A2C28247454548A8A8A00
EE56:0000022001400080014002200200050005000880089014601420225022900000
EE57:00000200020002000500050005000C800BE00880144014401440222022200000
EE58:000002180224054004C004800880088008801480148014402240222422180000
EE59:00000000208011400B4004A00A601100208011000A0004000A00110020800000
EE5A:00008A442A102844824428102A448A00
EE5B:00008A442A1028448244281028448200
EE5C:00000000208011400A2004000A001100208011000A0004000A20114020800000
EE5D:0000C020382022242830202020202000
EE5E:00000000E088389020A030C02880248022802180208020802080208020800000
EE5F:001814123F282828247454544AEAAA00
EE60:00181412392A2C28247454544AEAAA00
EE61:00000220014000800140022002000500050008800890146014202A502A900000
EE62:000002180224054004C004800880088008801480148012402A40292429180000
EE63:0010121438282828247454544AEAAA00
EE64:0000078008401020302020102010E01CA0142010F03C9024186077B820100000
EE65:000C122242C2FE808080402010080000
EE66:00000204081038E638E638D608040200
EE67:0000279028503030186027902010E01CA0142010F03C9024186077B820100000
EE68:003C0C14244040808080404020100800
EE69:00000204081010F03C20101008040200
EE6A:000002040810F03C20F01C1008040200
EE6B:00008850205048808080404020100800
EE6C:0000020408103864A2A2543818040200
EE6D:00000810207C40808080404020100800
EE6E:0000000018202420422001200120012001A00160012001204220242018200000
EE6F:000020C020A021902288248428FC308020802080208020802080208020800000
EE70:00000000111010A0184014A01290110011001100109010A0104010A011100000
EE71:0000114010C0184014601250114010C010401040104010401040104010400000
EE72:0000000010601090110812001200120016001A00120012001108109010600000
EE73:000010421044184814501260114010C010401040104010401040104010401040
EE74:00004104418C6154512449044504430441044104410441244154418C41040000
EE75:0000181412112F282844444482828200
EE76:0000022001400080014002200200050005000880089010601020205020900000
EE77:00101814121028282844444482828200
EE78:000010101010282C2A5566568A828200
EE79:0000060005800A600A200A401180110011E020982088209040E0404040400000
EE7A:000000C0012006100E000C001400140014002400240022004210412040C00000
EE7B:000002000200058005600510088008E0089810401070104C2020202020200000
EE7C:00101112141828282844444482828200
EE7D:00004244485E60404040404040404000
EE7E:0010080C8A4828180808080808080800
EE7F:0000638C1C700820082010101010101010101010301850149832244843840000
EE80:0000101029284544038001001120295045880304010009201550238841040100
EE81:00002220222011500888088405FC020002000500088008801440222022200000
EE82:0000410063805540494041204120419041904148414849A455A4635241520000
EE83:0000410063805560491841044118416041804160411849045518636041800000
EE84:00001040304028A048A045100510020002004510451028A028A0104010400000
EE85:000041046384554449244114410C410441044104410449045504630441040000
EE86:00000038549292929292929254380000
EE87:00004180634055204910410841F8410041004100410041004100410041000000
EE88:000041846344552449144124414441C441244114410C41044104410441040000
EE89:000020C030A028902488228431FC288024802280318028802480228021800000
EE8A:000041046184514449244514630C510449044504630451044904450443040000
EE8B:00002088309028A024C022803180288024802280318028802480228021800000
EEEE:000000001FF811001FF011001FF011001FFC00040204222422243FE420380000
