<?xml version="1.0" encoding="UTF-8" standalone="no"?>
<!-- Created with Inkscape (http://www.inkscape.org/) -->

<svg
   xmlns:dc="http://purl.org/dc/elements/1.1/"
   xmlns:cc="http://creativecommons.org/ns#"
   xmlns:rdf="http://www.w3.org/1999/02/22-rdf-syntax-ns#"
   xmlns:svg="http://www.w3.org/2000/svg"
   xmlns="http://www.w3.org/2000/svg"
   xmlns:xlink="http://www.w3.org/1999/xlink"
   xmlns:sodipodi="http://sodipodi.sourceforge.net/DTD/sodipodi-0.dtd"
   xmlns:inkscape="http://www.inkscape.org/namespaces/inkscape"
   width="20"
   height="20"
   viewBox="0 0 20 20"
   version="1.1"
   id="svg8"
   inkscape:version="0.92.3 (2405546, 2018-03-11)"
   sodipodi:docname="Caution.svg">
  <title
     id="title816">Yudit Caution Icon</title>
  <defs
     id="defs2">
    <inkscape:path-effect
       effect="bspline"
       id="path-effect1019"
       is_visible="true"
       weight="33.333333"
       steps="2"
       helper_size="0"
       apply_no_weight="true"
       apply_with_weight="true"
       only_selected="false" />
    <inkscape:path-effect
       effect="bspline"
       id="path-effect1011"
       is_visible="true"
       weight="33.333333"
       steps="2"
       helper_size="0"
       apply_no_weight="true"
       apply_with_weight="true"
       only_selected="false" />
  </defs>
  <sodipodi:namedview
     id="base"
     pagecolor="#ffffff"
     bordercolor="#666666"
     borderopacity="1.0"
     inkscape:pageopacity="0.0"
     inkscape:pageshadow="2"
     inkscape:zoom="53.25"
     inkscape:cx="10"
     inkscape:cy="10"
     inkscape:document-units="px"
     inkscape:current-layer="layer3"
     showgrid="true"
     units="px"
     inkscape:showpageshadow="false"
     inkscape:window-width="1815"
     inkscape:window-height="1263"
     inkscape:window-x="988"
     inkscape:window-y="64"
     inkscape:window-maximized="0">
    <inkscape:grid
       type="xygrid"
       id="grid878" />
  </sodipodi:namedview>
  <metadata
     id="metadata5">
    <rdf:RDF>
      <cc:Work
         rdf:about="">
        <dc:format>image/svg+xml</dc:format>
        <dc:type
           rdf:resource="http://purl.org/dc/dcmitype/StillImage" />
        <dc:title>Yudit Caution Icon</dc:title>
        <dc:date>2020-05-24</dc:date>
        <dc:creator>
          <cc:Agent>
            <dc:title>Gaspar Sinai</dc:title>
          </cc:Agent>
        </dc:creator>
        <dc:contributor>
          <cc:Agent>
            <dc:title />
          </cc:Agent>
        </dc:contributor>
        <dc:rights>
          <cc:Agent>
            <dc:title>GPL Version 2</dc:title>
          </cc:Agent>
        </dc:rights>
      </cc:Work>
    </rdf:RDF>
  </metadata>
  <g
     inkscape:groupmode="layer"
     id="layer2"
     inkscape:label="Import"
     style="display:none">
    <image
       y="-1"
       x="6"
       id="image976"
       xlink:href="data:image/png;base64,iVBORw0KGgoAAAANSUhEUgAAABQAAAAUCAYAAACNiR0NAAAABHNCSVQICAgIfAhkiAAAAWFJREFU
OI2tlK9OxEAQxr+WXsJ7kGs3zQlWElQdCQ5VgykPcAmG5AQOBK74q6nZF7ikqCo0iKbZ8hoYEqCH
KLvX/dNeSRg5s99vv9nNjIORiON4q+cYY86YxloUIM65VUQIGQQrSR0UBRUuz1xFkKShhALA+1GI
zd2t5Hh9mA6ivgc9smWNvGhR/ponWt1QZMvaAGWb787d+QGoLxxXKJuFcaHXdxcFlRV2df8JAKBz
B9R3VSjv9OJNFbX+XmMhoGWj5l3VnQmk892/6XXqu4iCCpxz+aHyxJA7AVmvZta6rpve48SYBFyv
Zkrrk4APTxeDh8Tv2iIvWhXIGHMIIeCc4+WttYqGYABQNgtlFCe17Jx+4OTm2MjbDLhAt0EIIUjS
0Dg05Pr68QtJGhqLwhi9JA2RLWsAkFOxfT4E8CovyIvWOnbAnm0jwPqFwG7b6Gvsz/twCDQK1MH9
2Lex/z1+AAXVlrl/+ptZAAAAAElFTkSuQmCC
"
       preserveAspectRatio="none"
       height="20"
       width="20" />
  </g>
  <g
     inkscape:groupmode="layer"
     id="layer3"
     inkscape:label="Circle">
    <path
       inkscape:connector-curvature="0"
       style="fill:#ffc508;fill-opacity:1;stroke:#000000;stroke-width:1.5;stroke-linejoin:round;stroke-miterlimit:4;stroke-dasharray:none;stroke-opacity:1"
       d="m 1.7607895,10 c 0,-4.5464233 3.6664704,-8.2128937 8.2128938,-8.2128937 4.5464227,0 8.2128927,3.6664704 8.2128927,8.2128937 0,4.546423 -3.66647,8.212893 -8.2128927,8.212893 -4.5464234,0 -8.2128938,-3.66647 -8.2128938,-8.212893 z"
       id="path2161" />
    <path
       style="fill:#000000;fill-opacity:1;stroke:none;stroke-width:1.61051011px;stroke-linecap:butt;stroke-linejoin:miter;stroke-opacity:1"
       d="m 10.013215,12.682013 c 0.678881,0.01635 1.370983,0.714716 1.371505,1.380908 5.23e-4,0.666192 -0.689501,1.299253 -1.371444,1.283832 -0.6819429,-0.01542 -1.3458509,-0.679328 -1.3453509,-1.347253 5e-4,-0.667925 0.6664097,-1.333835 1.3452899,-1.317487 z"
       id="path1009"
       inkscape:connector-curvature="0"
       inkscape:path-effect="#path-effect1011"
       inkscape:original-d="m 10,12 c 0.6931,0.697366 1.385202,1.395734 2.076304,2.095101 C 11.385202,14.729068 10.695178,15.362129 10,16 9.3323332,15.330333 8.6684252,14.666425 8,14 8.6684252,13.331575 9.3343347,12.665665 10,12 Z"
       sodipodi:nodetypes="ccccc" />
    <path
       style="fill:#000000;stroke:none;stroke-width:1px;stroke-linecap:butt;stroke-linejoin:miter;stroke-opacity:1;fill-opacity:1"
       d="M 10.0005,10.666167 C 9.6666668,10.666667 9.3333332,10.333333 8.999923,9.3329486 8.6665128,8.3325641 8.3331795,6.6658975 8.5003692,5.666059 8.6675589,4.6662205 9.3345333,4.3327333 10.0002,4.3328334 c 0.665667,1.001e-4 1.333533,0.3340331 1.500215,1.3328563 0.166682,0.9988231 -0.166851,2.6664898 -0.499915,3.6666821 -0.333064,1.0001922 -0.666167,1.3332952 -1,1.3337952 z"
       id="path1017"
       inkscape:connector-curvature="0"
       inkscape:path-effect="#path-effect1019"
       inkscape:original-d="M 10,11 C 9.6676667,10.665667 9.3343333,10.332333 9,10 8.6676667,8.3323333 8.3343333,6.6656667 8,5 8.6673589,4.6658205 9.3343333,4.3323333 10,4 c 0.666467,0.3317333 1.334333,0.6656667 2,1 -0.332133,1.6646667 -0.665667,3.3323333 -1,5 -0.332564,0.332564 -0.665667,0.665667 -1,1 z" />
  </g>
  <g
     inkscape:groupmode="layer"
     id="layer1"
     inkscape:label="Drawing" />
</svg>
