<?xml version="1.0" encoding="UTF-8" standalone="no"?>
<!-- Created with Inkscape (http://www.inkscape.org/) -->

<svg
   xmlns:dc="http://purl.org/dc/elements/1.1/"
   xmlns:cc="http://creativecommons.org/ns#"
   xmlns:rdf="http://www.w3.org/1999/02/22-rdf-syntax-ns#"
   xmlns:svg="http://www.w3.org/2000/svg"
   xmlns="http://www.w3.org/2000/svg"
   xmlns:sodipodi="http://sodipodi.sourceforge.net/DTD/sodipodi-0.dtd"
   xmlns:inkscape="http://www.inkscape.org/namespaces/inkscape"
   width="20"
   height="20"
   viewBox="0 0 20 20"
   version="1.1"
   id="svg8"
   inkscape:version="0.92.3 (2405546, 2018-03-11)"
   sodipodi:docname="Undo.svg">
  <title
     id="title816">Yudit Undo</title>
  <defs
     id="defs2" />
  <sodipodi:namedview
     id="base"
     pagecolor="#ffffff"
     bordercolor="#666666"
     borderopacity="1.0"
     inkscape:pageopacity="0.0"
     inkscape:pageshadow="2"
     inkscape:zoom="32.35"
     inkscape:cx="3.1066461"
     inkscape:cy="10"
     inkscape:document-units="px"
     inkscape:current-layer="layer2"
     showgrid="true"
     units="px"
     inkscape:showpageshadow="false"
     inkscape:window-width="1264"
     inkscape:window-height="1146"
     inkscape:window-x="926"
     inkscape:window-y="187"
     inkscape:window-maximized="0"
     inkscape:pagecheckerboard="true">
    <inkscape:grid
       type="xygrid"
       id="grid853" />
  </sodipodi:namedview>
  <metadata
     id="metadata5">
    <rdf:RDF>
      <cc:Work
         rdf:about="">
        <dc:format>image/svg+xml</dc:format>
        <dc:type
           rdf:resource="http://purl.org/dc/dcmitype/StillImage" />
        <dc:title>Yudit Undo</dc:title>
        <dc:date>2020-05-24</dc:date>
        <dc:creator>
          <cc:Agent>
            <dc:title>Gaspar Sinai</dc:title>
          </cc:Agent>
        </dc:creator>
        <dc:contributor>
          <cc:Agent>
            <dc:title />
          </cc:Agent>
        </dc:contributor>
        <dc:rights>
          <cc:Agent>
            <dc:title>GPL Version 2</dc:title>
          </cc:Agent>
        </dc:rights>
      </cc:Work>
    </rdf:RDF>
  </metadata>
  <g
     inkscape:label="Layer 1"
     inkscape:groupmode="layer"
     id="layer1"
     transform="translate(0,-291.70832)"
     style="display:none">
    <rect
       style="opacity:1;fill:#7f7f7f;fill-opacity:1;stroke:none;stroke-width:1.5;stroke-linecap:round;stroke-linejoin:round;stroke-miterlimit:4;stroke-dasharray:none;stroke-opacity:1;paint-order:normal"
       id="rect819"
       width="22.812983"
       height="21.731066"
       x="0"
       y="291.70831" />
  </g>
  <g
     inkscape:groupmode="layer"
     id="layer2"
     inkscape:label="BaseLayer"
     style="display:inline">
    <path
       style="fill:#50195e;fill-opacity:1;stroke:none;stroke-width:0.25;stroke-linecap:butt;stroke-linejoin:miter;stroke-miterlimit:4;stroke-dasharray:none;stroke-opacity:1"
       d="m 7.4548108,3.0000008 c -1.379926,1.026731 -2.513435,1.922038 -2.52165,1.987749 -0.01643,0.06571 0,0.164277 0.04107,0.21356 0.04928,0.07391 2.603785,1.979536 4.3533327,3.252681 0.7228225,0.517472 0.7803185,0.550327 0.9445955,0.435334 0.164276,-0.114995 0.172491,-0.180705 0.147848,-1.306001 -0.0083,-0.689963 0.0082,-1.199221 0.0575,-1.232076 0.114993,-0.065708 0.87888,0.172492 1.453849,0.46819 0.632466,0.312125 1.56063,1.248502 1.913826,1.913824 0.328552,0.6324651 0.509258,1.3881392 0.509258,2.1684532 0.0082,2.86663 -2.751639,5.100797 -5.5279162,4.48476 -0.944592,-0.213561 -1.560629,-0.558543 -2.283448,-1.273147 -0.961019,-0.952806 -1.388139,-1.954893 -1.388139,-3.277323 v -0.591397 h -1.248503 -1.240288 l 0.04928,0.837813 c 0.07392,1.141724 0.303912,1.995965 0.804957,3.01448 0.509258,1.010301 1.41278,2.028819 2.349158,2.644856 2.809128,1.831687 6.5710682,1.445636 8.8709442,-0.919949 0.665325,-0.68175 0.87067,-0.969235 1.256721,-1.716692 0.862456,-1.716694 1.026734,-3.540167 0.459977,-5.3389992 -0.624252,-2.020605 -2.143811,-3.655159 -4.090492,-4.42726 -0.517471,-0.205346 -0.821384,-0.287484 -1.765975,-0.46819 -0.180705,-0.03286 -0.188918,-0.06571 -0.205346,-1.37171 l -0.02464,-1.330642 -0.205345,-0.01643 c -0.156063,-0.00818 -0.8460255,0.459974 -2.7105682,1.848113 z"
       id="path833"
       inkscape:connector-curvature="0" />
  </g>
</svg>
